{
  "Comment.nvim": { "branch": "master", "commit": "e30b7f2008e52442154b66f7c519bfd2f1e32acb" },
  "LuaSnip": { "branch": "master", "commit": "c9b9a22904c97d0eb69ccb9bab76037838326817" },
  "aerial.nvim": { "branch": "master", "commit": "3284a2cb858ba009c79da87d5e010ccee3c99c4d" },
  "autoclose.nvim": { "branch": "main", "commit": "b2077aa2c83df7ebc19b2a20a3a0654b24ae9c8f" },
  "cmp-nvim-lsp": { "branch": "main", "commit": "99290b3ec1322070bcfb9e846450a46f6efa50f0" },
  "harpoon": { "branch": "harpoon2", "commit": "ed1f853847ffd04b2b61c314865665e1dadf22c7" },
  "lazy.nvim": { "branch": "main", "commit": "a8c6db5da7bd382094606340eed015d14fbb5654" },
  "lsp-zero.nvim": { "branch": "v3.x", "commit": "ab2a3413646fedd77aa0eab4214a6473e62f6a64" },
  "lualine.nvim": { "branch": "master", "commit": "f4f791f67e70d378a754d02da068231d2352e5bc" },
  "markdown.nvim": { "branch": "main", "commit": "57fa691b9e374c6539cc0340062dac8f42d4bd8b" },
  "mason-lspconfig.nvim": { "branch": "main", "commit": "1a31f824b9cd5bc6f342fc29e9a53b60d74af245" },
  "mason.nvim": { "branch": "main", "commit": "fc98833b6da5de5a9c5b1446ac541577059555be" },
  "neo-tree.nvim": { "branch": "v3.x", "commit": "e96fd85bf18bc345dab332b345098fa5460dffac" },
  "nui.nvim": { "branch": "main", "commit": "53e907ffe5eedebdca1cd503b00aa8692068ca46" },
  "nvim-cmp": { "branch": "main", "commit": "5a11682453ac6b13dbf32cd403da4ee9c07ef1c3" },
  "nvim-jdtls": { "branch": "master", "commit": "2f7bff9b8d2ee1918b36ca55f19547d9d335a268" },
  "nvim-lspconfig": { "branch": "master", "commit": "9e932edb0af4e20880685ddb96a231669fbe8091" },
  "nvim-treesitter": { "branch": "master", "commit": "e6d02ec9efd396d294a7793f2066e2527b07b03a" },
  "nvim-web-devicons": { "branch": "master", "commit": "1020869742ecb191f260818234517f4a1515cfe8" },
  "plenary.nvim": { "branch": "master", "commit": "857c5ac632080dba10aae49dba902ce3abf91b35" },
  "rustaceanvim": { "branch": "master", "commit": "f03035fa03ccb36cd26d0792c946fbacba1d1a39" },
  "telescope.nvim": { "branch": "0.1.x", "commit": "a0bbec21143c7bc5f8bb02e0005fa0b982edc026" },
  "tokyonight.nvim": { "branch": "main", "commit": "057ef5d260c1931f1dffd0f052c685dcd14100a3" },
  "undotree": { "branch": "main", "commit": "eab459ab87dd249617b5f7187bb69e614a083047" },
  "vimtex": { "branch": "master", "commit": "096a0450261abccb7944630fae66788712be46a8" },
  "zen-mode.nvim": { "branch": "main", "commit": "863f150ca321b3dd8aa1a2b69b5f411a220e144f" }
}
